rtl/advanced_fir_pipelined/vcd/myadvfir_place.vcd
$date
	Sat Nov 11 14:18:14 2023
$end
$version
	QuestaSim Version 2020.4
$end
$timescale
	1ps
$end

$scope module tb_fir_unfolded_post_syn $end
$var wire 1 ! CLK_i $end
$var wire 1 " RST_n_i $end
$var wire 1 # DIN3k_i [7] $end
$var wire 1 $ DIN3k_i [6] $end
$var wire 1 % DIN3k_i [5] $end
$var wire 1 & DIN3k_i [4] $end
$var wire 1 ' DIN3k_i [3] $end
$var wire 1 ( DIN3k_i [2] $end
$var wire 1 ) DIN3k_i [1] $end
$var wire 1 * DIN3k_i [0] $end
$var wire 1 + DIN3k1_i [7] $end
$var wire 1 , DIN3k1_i [6] $end
$var wire 1 - DIN3k1_i [5] $end
$var wire 1 . DIN3k1_i [4] $end
$var wire 1 / DIN3k1_i [3] $end
$var wire 1 0 DIN3k1_i [2] $end
$var wire 1 1 DIN3k1_i [1] $end
$var wire 1 2 DIN3k1_i [0] $end
$var wire 1 3 DIN3k2_i [7] $end
$var wire 1 4 DIN3k2_i [6] $end
$var wire 1 5 DIN3k2_i [5] $end
$var wire 1 6 DIN3k2_i [4] $end
$var wire 1 7 DIN3k2_i [3] $end
$var wire 1 8 DIN3k2_i [2] $end
$var wire 1 9 DIN3k2_i [1] $end
$var wire 1 : DIN3k2_i [0] $end
$var wire 1 ; VIN_i $end
$var wire 1 < B0_i [7] $end
$var wire 1 = B0_i [6] $end
$var wire 1 > B0_i [5] $end
$var wire 1 ? B0_i [4] $end
$var wire 1 @ B0_i [3] $end
$var wire 1 A B0_i [2] $end
$var wire 1 B B0_i [1] $end
$var wire 1 C B0_i [0] $end
$var wire 1 D B1_i [7] $end
$var wire 1 E B1_i [6] $end
$var wire 1 F B1_i [5] $end
$var wire 1 G B1_i [4] $end
$var wire 1 H B1_i [3] $end
$var wire 1 I B1_i [2] $end
$var wire 1 J B1_i [1] $end
$var wire 1 K B1_i [0] $end
$var wire 1 L B2_i [7] $end
$var wire 1 M B2_i [6] $end
$var wire 1 N B2_i [5] $end
$var wire 1 O B2_i [4] $end
$var wire 1 P B2_i [3] $end
$var wire 1 Q B2_i [2] $end
$var wire 1 R B2_i [1] $end
$var wire 1 S B2_i [0] $end
$var wire 1 T B3_i [7] $end
$var wire 1 U B3_i [6] $end
$var wire 1 V B3_i [5] $end
$var wire 1 W B3_i [4] $end
$var wire 1 X B3_i [3] $end
$var wire 1 Y B3_i [2] $end
$var wire 1 Z B3_i [1] $end
$var wire 1 [ B3_i [0] $end
$var wire 1 \ B4_i [7] $end
$var wire 1 ] B4_i [6] $end
$var wire 1 ^ B4_i [5] $end
$var wire 1 _ B4_i [4] $end
$var wire 1 ` B4_i [3] $end
$var wire 1 a B4_i [2] $end
$var wire 1 b B4_i [1] $end
$var wire 1 c B4_i [0] $end
$var wire 1 d B5_i [7] $end
$var wire 1 e B5_i [6] $end
$var wire 1 f B5_i [5] $end
$var wire 1 g B5_i [4] $end
$var wire 1 h B5_i [3] $end
$var wire 1 i B5_i [2] $end
$var wire 1 j B5_i [1] $end
$var wire 1 k B5_i [0] $end
$var wire 1 l B6_i [7] $end
$var wire 1 m B6_i [6] $end
$var wire 1 n B6_i [5] $end
$var wire 1 o B6_i [4] $end
$var wire 1 p B6_i [3] $end
$var wire 1 q B6_i [2] $end
$var wire 1 r B6_i [1] $end
$var wire 1 s B6_i [0] $end
$var wire 1 t B7_i [7] $end
$var wire 1 u B7_i [6] $end
$var wire 1 v B7_i [5] $end
$var wire 1 w B7_i [4] $end
$var wire 1 x B7_i [3] $end
$var wire 1 y B7_i [2] $end
$var wire 1 z B7_i [1] $end
$var wire 1 { B7_i [0] $end
$var wire 1 | B8_i [7] $end
$var wire 1 } B8_i [6] $end
$var wire 1 ~ B8_i [5] $end
$var wire 1 !! B8_i [4] $end
$var wire 1 "! B8_i [3] $end
$var wire 1 #! B8_i [2] $end
$var wire 1 $! B8_i [1] $end
$var wire 1 %! B8_i [0] $end
$var wire 1 &! B9_i [7] $end
$var wire 1 '! B9_i [6] $end
$var wire 1 (! B9_i [5] $end
$var wire 1 )! B9_i [4] $end
$var wire 1 *! B9_i [3] $end
$var wire 1 +! B9_i [2] $end
$var wire 1 ,! B9_i [1] $end
$var wire 1 -! B9_i [0] $end
$var wire 1 .! B10_i [7] $end
$var wire 1 /! B10_i [6] $end
$var wire 1 0! B10_i [5] $end
$var wire 1 1! B10_i [4] $end
$var wire 1 2! B10_i [3] $end
$var wire 1 3! B10_i [2] $end
$var wire 1 4! B10_i [1] $end
$var wire 1 5! B10_i [0] $end
$var wire 1 6! DOUT3k_i [7] $end
$var wire 1 7! DOUT3k_i [6] $end
$var wire 1 8! DOUT3k_i [5] $end
$var wire 1 9! DOUT3k_i [4] $end
$var wire 1 :! DOUT3k_i [3] $end
$var wire 1 ;! DOUT3k_i [2] $end
$var wire 1 <! DOUT3k_i [1] $end
$var wire 1 =! DOUT3k_i [0] $end
$var wire 1 >! DOUT3k1_i [7] $end
$var wire 1 ?! DOUT3k1_i [6] $end
$var wire 1 @! DOUT3k1_i [5] $end
$var wire 1 A! DOUT3k1_i [4] $end
$var wire 1 B! DOUT3k1_i [3] $end
$var wire 1 C! DOUT3k1_i [2] $end
$var wire 1 D! DOUT3k1_i [1] $end
$var wire 1 E! DOUT3k1_i [0] $end
$var wire 1 F! DOUT3k2_i [7] $end
$var wire 1 G! DOUT3k2_i [6] $end
$var wire 1 H! DOUT3k2_i [5] $end
$var wire 1 I! DOUT3k2_i [4] $end
$var wire 1 J! DOUT3k2_i [3] $end
$var wire 1 K! DOUT3k2_i [2] $end
$var wire 1 L! DOUT3k2_i [1] $end
$var wire 1 M! DOUT3k2_i [0] $end
$var wire 1 N! VOUT_i $end
$var wire 1 O! END_SIM_i $end
$upscope $end
$enddefinitions $end
#0
$dumpvars
0!
0"
x*
x)
x(
x'
x&
x%
x$
x#
x2
x1
x0
x/
x.
x-
x,
x+
x:
x9
x8
x7
x6
x5
x4
x3
x;
1C
1B
1A
1@
1?
1>
1=
1<
0K
1J
1I
1H
1G
1F
1E
1D
0S
0R
1Q
1P
1O
1N
1M
1L
0[
0Z
0Y
1X
0W
0V
0U
0T
1c
1b
0a
0`
0_
1^
0]
0\
0k
1j
0i
0h
1g
1f
0e
0d
1s
1r
0q
0p
0o
1n
0m
0l
0{
0z
0y
1x
0w
0v
0u
0t
0%!
0$!
1#!
1"!
1!!
1~
1}
1|
0-!
1,!
1+!
1*!
1)!
1(!
1'!
1&!
15!
14!
13!
12!
11!
10!
1/!
1.!
x=!
x<!
x;!
x:!
x9!
x8!
x7!
x6!
xE!
xD!
xC!
xB!
xA!
x@!
x?!
x>!
xM!
xL!
xK!
xJ!
xI!
xH!
xG!
xF!
xN!
xO!
$end
#37
0A!
#38
0?!
#40
0B!
#41
0@!
#43
0C!
0D!
0E!
#44
0>!
#260
0N!
#262
0H!
0F!
0I!
#263
0G!
0J!
0L!
0M!
#264
0K!
#272
08!
06!
07!
#273
0:!
0;!
0<!
0=!
09!
#480
0#
0$
0%
0&
0'
0(
0)
0*
0+
0,
0-
0.
0/
00
01
02
03
04
05
06
07
08
09
0:
0;
0O!
#2400
1!
#4800
0!
#4900
1"
#7200
1!
#9600
0!
#12000
1!
#12480
1,
10
11
12
13
14
15
17
1;
#14400
0!
#16800
1!
#17280
1$
1(
1)
1*
1-
00
02
03
04
05
07
#19200
0!
#21600
1!
#22080
1%
0(
0*
0-
10
12
13
14
15
17
#24000
0!
#26400
1!
#26880
0%
1(
1*
0,
00
01
02
04
16
#28800
0!
#31200
1!
#31315
1E!
1C!
1B!
1>!
1A!
#31316
1D!
1?!
1@!
#31319
1J!
1K!
1L!
#31320
1N!
1H!
1I!
1F!
#31326
1G!
#31680
0$
1&
1+
1-
1.
1/
05
18
1:
#33600
0!
#36000
1!
#36098
0C!
0A!
#36099
0D!
0B!
0>!
0?!
0@!
#36101
0L!
#36102
0I!
#36103
0H!
0F!
#36106
0G!
#36114
17!
18!
1;!
1:!
16!
19!
#36480
0&
0(
0)
0*
0-
10
12
15
08
0:
#38400
0!
#40800
1!
#40897
08!
0;!
0:!
06!
#40898
07!
#40914
1<!
1=!
#40915
1B!
1A!
1C!
#40916
1D!
#40920
1H!
#41280
0;
#43200
0!
#45600
1!
#45697
0=!
#45698
0E!
0C!
#45699
0D!
#45701
0J!
#45714
1;!
18!
#45716
1@!
#45719
1L!
#45720
1I!
#46080
1&
1(
1)
1*
1-
00
02
14
18
19
1:
1;
#48000
0!
#50400
1!
#50497
09!
0<!
#50498
0A!
#50499
0B!
#50502
0I!
#50503
0H!
#50514
1:!
#50519
1J!
#50880
1$
0&
1,
0.
03
05
06
07
#52800
0!
#55200
1!
#55301
0J!
#55314
16!
19!
17!
#55315
1B!
1>!
#55316
1?!
#55320
1F!
1I!
#55326
1G!
#55680
1%
0(
0*
0+
0,
0-
0/
15
08
0:
#57600
0!
#60000
1!
#60101
0N!
#60480
0%
1(
1*
1+
1,
1-
1/
05
18
1:
#62400
0!
#64800
1!
#64897
0;!
08!
09!
#64899
0B!
0@!
#64906
0G!
#64914
1=!
#64915
1E!
#64919
1J!
#64920
1N!
1H!
#65280
1#
1%
1&
1'
0,
1.
04
16
#67200
0!
#69600
1!
#69697
0:!
#69701
0L!
0J!
#69703
0H!
#69715
1B!
#69718
1M!
#69726
1G!
#70080
0$
0(
0)
0*
0-
10
12
06
08
09
0:
#72000
0!
#74400
1!
#74502
0I!
#74503
0F!
#74506
0G!
#74514
18!
1<!
1;!
#74515
1A!
#74516
1@!
1D!
#74519
1J!
#74880
0%
1(
1*
1-
00
02
16
18
19
1:
#76800
0!
#79200
1!
#79297
08!
06!
#79298
07!
0E!
0A!
#79299
0?!
0>!
0D!
#79301
0M!
0J!
#79314
1:!
19!
#79315
1C!
#79319
1L!
#79320
1H!
1I!
#79680
0;
#81600
0!
#84000
1!
#84097
0=!
0<!
0;!
#84099
0B!
#84101
0L!
#84102
0I!
#84114
18!
#84115
1A!
#84116
1D!
#84119
1J!
#86400
0!
#88800
1!
#88897
08!
#88898
0A!
#88899
0@!
0D!
#88902
0K!
#88914
1=!
1<!
1;!
#88915
1E!
1B!
#88918
1M!
#88919
1L!
#88920
1F!
1I!
#88926
1G!
#91200
0!
#93600
1!
#93697
09!
0:!
#93699
0B!
#93701
0L!
#93702
0I!
#93703
0H!
#93714
16!
18!
17!
#93715
1A!
1>!
#93716
1?!
#96000
0!
#98400
1!
#98501
0N!
#100800
0!
#103200
1!
#105600
0!
#108000
1!
#108480
1%
0(
0*
1,
10
11
12
14
06
1;
#110400
0!
#112800
1!
#113280
0;
#115200
0!
#117600
1!
#120000
0!
#122400
1!
#124800
0!
#127200
1!
#127297
0;!
0<!
08!
#127298
0E!
#127299
0?!
#127301
0J!
#127315
1B!
#127316
1@!
1D!
#127320
1N!
#129600
0!
#132000
1!
#132101
0N!
#134400
0!
#136800
1!
#137280
1$
0&
0+
0-
0.
0/
15
08
0:
1;
#139200
0!
#141600
1!
#142080
0#
0$
0%
0'
1-
00
02
05
18
1:
#144000
0!
#146400
1!
#146880
0;
#148800
0!
#151200
1!
#153600
0!
#156000
1!
#156099
0D!
0@!
0B!
#156114
1:!
#156115
1E!
#156116
1?!
#156119
1L!
1K!
#156120
1N!
1H!
#158400
0!
#160800
1!
#160898
0A!
#160899
0>!
0?!
#160903
0F!
0H!
#160906
0G!
#160914
18!
19!
1<!
#160915
1B!
#160919
1J!
#160920
1I!
#163200
0!
#165600
1!
#165701
0N!
#166080
1#
1$
1%
1'
0-
10
12
04
08
09
0:
1;
#168000
0!
#170400
1!
#170880
0;
#172800
0!
#175200
1!
#175680
0$
1&
0,
1.
13
15
16
17
1;
#177600
0!
#180000
1!
#180480
0;
#182400
0!
#184800
1!
#184897
06!
09!
0<!
0=!
#184898
07!
0E!
#184899
0B!
#184901
0L!
0M!
#184902
0K!
#184914
1;!
#184915
1A!
#184916
1@!
1D!
#184920
1N!
1H!
#187200
0!
#189600
1!
#189701
0N!
#192000
0!
#194400
1!
#194497
0:!
#194498
0A!
#194499
0D!
#194501
0J!
#194502
0I!
#194514
1<!
19!
#194515
1B!
#194520
1N!
#194880
0%
1(
1*
0.
00
01
02
05
18
1:
1;
#196800
0!
#199200
1!
#199301
0N!
#199680
1%
0(
0*
1.
10
11
12
15
08
0:
#201600
0!
#204000
1!
#204480
0#
0%
0&
0'
1,
0.
14
06
#206400
0!
#208800
1!
#209280
1$
1(
1)
1*
1-
00
02
03
04
05
07
#211200
0!
#213600
1!
#213697
08!
09!
#213714
1:!
#213715
1A!
1>!
#213716
1?!
#213719
1J!
#213720
1N!
1F!
#213726
1G!
#214080
0;
#216000
0!
#218400
1!
#218497
0:!
#218498
0A!
0C!
#218499
0@!
#218501
0J!
#218503
0H!
#218514
17!
16!
19!
#218515
1E!
#218518
1M!
#220800
0!
#223200
1!
#223298
07!
#223299
0B!
#223314
1:!
18!
#223319
1J!
#223680
1%
0(
0*
0-
10
12
13
14
15
17
1;
#225600
0!
#228000
1!
#228097
0:!
08!
#228098
0E!
#228101
0M!
#228114
17!
#228115
1B!
#228116
1@!
#228119
1K!
#228120
1I!
1H!
#228480
0;
#230400
0!
#232800
1!
#232901
0N!
#235200
0!
#237600
1!
#240000
0!
#242400
1!
#242497
06!
09!
#242498
07!
#242499
0>!
0B!
0?!
#242502
0I!
#242503
0F!
#242506
0G!
#242514
1:!
#242520
1N!
#242880
0%
1(
1*
0,
00
01
02
04
16
1;
#244800
0!
#247200
1!
#247301
0N!
#247680
0;
#249600
0!
#252000
1!
#252480
0$
1&
1+
1-
1.
1/
05
18
1:
1;
#254400
0!
#256800
1!
#257280
0&
0(
0)
0*
0-
10
12
15
08
0:
#259200
0!
#261600
1!
#261697
0:!
#261701
0J!
#261714
18!
19!
#261715
1A!
1B!
#261719
1L!
#261720
1N!
1I!
#262080
0;
#264000
0!
#266400
1!
#266501
0N!
#268800
0!
#271200
1!
#271297
09!
0<!
#271298
0A!
#271299
0B!
#271302
0I!
#271303
0H!
#271314
1:!
#271319
1J!
#271320
1N!
#271680
1&
1(
1)
1*
1-
00
02
14
18
19
1:
1;
#273600
0!
#276000
1!
#276101
0J!
#276114
19!
16!
17!
#276115
1B!
1>!
#276116
1?!
#276120
1F!
1I!
#276126
1G!
#276480
1$
0&
1,
0.
03
05
06
07
#278400
0!
#280800
1!
#280901
0N!
#281280
1%
0(
0*
0+
0,
0-
0/
15
08
0:
#283200
0!
#285600
1!
#286080
0;
#288000
0!
#290400
1!
#290497
0;!
08!
09!
#290499
0B!
0@!
#290506
0G!
#290514
1=!
#290515
1E!
#290519
1J!
#290520
1N!
1H!
#290880
0%
1(
1*
1+
1,
1-
1/
05
18
1:
1;
#292800
0!
#295200
1!
#295297
0:!
#295301
0L!
0J!
#295303
0H!
#295315
1B!
#295318
1M!
#295326
1G!
#295680
0;
#297600
0!
#300000
1!
#300102
0I!
#300103
0F!
#300106
0G!
#300114
18!
1<!
1;!
#300115
1A!
#300116
1@!
1D!
#300119
1J!
#300480
1#
1%
1&
1'
0,
1.
04
16
1;
#302400
0!
#304800
1!
#304901
0N!
#305280
0;
#307200
0!
#309600
1!
#309697
06!
08!
#309698
07!
0A!
0E!
#309699
0>!
0?!
0D!
#309701
0J!
0M!
#309714
1:!
19!
#309715
1C!
#309719
1L!
#309720
1N!
1H!
1I!
#312000
0!
#314400
1!
#314501
0N!
#314880
0$
0(
0)
0*
0-
10
12
06
08
09
0:
1;
#316800
0!
#319200
1!
#319297
0<!
0;!
0=!
#319299
0B!
#319301
0L!
#319302
0I!
#319314
18!
#319315
1A!
#319316
1D!
#319319
1J!
#319320
1N!
#319680
0%
1(
1*
1-
00
02
16
18
19
1:
#321600
0!
#324000
1!
#324101
0N!
#324480
1%
0(
0*
1,
10
11
12
14
06
#326400
0!
#328800
1!
#329280
1$
0&
0+
0-
0.
0/
15
08
0:
#331200
0!
#333600
1!
#333697
08!
#333698
0A!
#333699
0@!
0D!
#333702
0K!
#333714
1<!
1;!
1=!
#333715
1E!
1B!
#333718
1M!
#333719
1L!
#333720
1N!
1F!
1I!
#333726
1G!
#334080
0#
0$
0%
0'
1-
00
02
05
18
1:
#336000
0!
#338400
1!
#338497
09!
0:!
#338499
0B!
#338501
0L!
#338502
0I!
#338503
0H!
#338514
16!
17!
18!
#338515
1A!
1>!
#338516
1?!
#338880
0;
#340800
0!
#343200
1!
#343297
0<!
08!
0;!
#343298
0E!
#343299
0?!
#343301
0J!
#343315
1B!
#343316
1D!
1@!
#343680
1#
1$
1%
1'
0-
10
12
04
08
09
0:
1;
#345600
0!
#348000
1!
#348099
0B!
0D!
0@!
#348114
1:!
#348115
1E!
#348116
1?!
#348119
1L!
1K!
#348120
1H!
#348480
0;
#350400
0!
#352800
1!
#352898
0A!
#352899
0>!
0?!
#352903
0F!
0H!
#352906
0G!
#352914
18!
19!
1<!
#352915
1B!
#352919
1J!
#352920
1I!
#355200
0!
#357600
1!
#357701
0N!
#360000
0!
#362400
1!
#362497
06!
09!
0<!
0=!
#362498
07!
0E!
#362499
0B!
#362501
0L!
0M!
#362502
0K!
#362514
1;!
#362515
1A!
#362516
1@!
1D!
#362520
1N!
1H!
#364800
0!
#367200
1!
#367301
0N!
#367680
0$
1&
0,
1.
13
15
16
17
1;
#369600
0!
#372000
1!
#372480
0%
1(
1*
0.
00
01
02
05
18
1:
#374400
0!
#376800
1!
#377280
1%
0(
0*
1.
10
11
12
15
08
0:
#379200
0!
#381600
1!
#382080
0;
#384000
0!
#386400
1!
#386497
0:!
#386498
0A!
#386499
0D!
#386501
0J!
#386502
0I!
#386514
1<!
19!
#386515
1B!
#386520
1N!
#388800
0!
#391200
1!
#391297
08!
09!
#391314
1:!
#391315
1>!
1A!
#391316
1?!
#391319
1J!
#391320
1F!
#391326
1G!
#393600
0!
#396000
1!
#396097
0:!
#396098
0C!
0A!
#396099
0@!
#396101
0J!
#396103
0H!
#396114
17!
16!
19!
#396115
1E!
#396118
1M!
#396480
0#
0%
0&
0'
1,
0.
14
06
1;
#398400
0!
#400800
1!
#400901
0N!
#401280
0;
#403200
0!
#405600
1!
#408000
0!
#410400
1!
#410880
1$
1(
1)
1*
1-
00
02
03
04
05
07
1;
#412800
0!
#415200
1!
#415298
07!
#415299
0B!
#415314
1:!
18!
#415319
1J!
#415320
1N!
#415680
0;
#417600
0!
#420000
1!
#420101
0N!
#422400
0!
#424800
1!
#425280
1%
0(
0*
0-
10
12
13
14
15
17
1;
#427200
0!
#429600
1!
#429697
08!
0:!
#429698
0E!
#429701
0M!
#429714
17!
#429715
1B!
#429716
1@!
#429719
1K!
#429720
1N!
1I!
1H!
#430080
0%
1(
1*
0,
00
01
02
04
16
#432000
0!
#434400
1!
#434501
0N!
#434880
0;
#436800
0!
#439200
1!
#439680
0$
1&
1+
1-
1.
1/
05
18
1:
1;
#441600
0!
#444000
1!
#444097
06!
09!
#444098
07!
#444099
0>!
0B!
0?!
#444102
0I!
#444103
0F!
#444106
0G!
#444114
1:!
#444120
1N!
#444480
0&
0(
0)
0*
0-
10
12
15
08
0:
#446400
0!
#448800
1!
#448897
0:!
#448901
0J!
#448914
18!
19!
#448915
1B!
1A!
#448919
1L!
#448920
1I!
#449280
0;
#451200
0!
#453600
1!
#453701
0N!
#454080
1&
1(
1)
1*
1-
00
02
14
18
19
1:
1;
#456000
0!
#458400
1!
#458497
09!
0<!
#458498
0A!
#458499
0B!
#458502
0I!
#458503
0H!
#458514
1:!
#458519
1J!
#458520
1N!
#458880
0;
#460800
0!
#463200
1!
#463301
0J!
#463314
19!
16!
17!
#463315
1B!
1>!
#463316
1?!
#463320
1F!
1I!
#463326
1G!
#463680
1$
0&
1,
0.
03
05
06
07
1;
#465600
0!
#468000
1!
#468101
0N!
#468480
1%
0(
0*
0+
0,
0-
0/
15
08
0:
#470400
0!
#472800
1!
#472897
0;!
08!
09!
#472899
0B!
0@!
#472906
0G!
#472914
1=!
#472915
1E!
#472919
1J!
#472920
1N!
1H!
#473280
0;
#475200
0!
#477600
1!
#477701
0N!
#478080
0%
1(
1*
1+
1,
1-
1/
05
18
1:
1;
#480000
0!
#482400
1!
#482497
0:!
#482501
0L!
0J!
#482503
0H!
#482515
1B!
#482518
1M!
#482520
1N!
#482526
1G!
#482880
0$
0(
0)
0*
0,
1.
04
16
#484800
0!
#487200
1!
#487302
0I!
#487303
0F!
#487306
0G!
#487314
18!
1<!
1;!
#487315
1A!
#487316
1@!
1D!
#487319
1J!
#487680
1#
1%
1&
1'
0-
10
12
06
08
09
0:
#489600
0!
#492000
1!
#492101
0N!
#492480
0%
1(
1*
1-
00
02
16
18
19
1:
#494400
0!
#496800
1!
#496897
06!
08!
#496898
07!
0A!
0E!
#496899
0>!
0?!
0D!
#496901
0J!
0M!
#496914
1:!
19!
#496915
1C!
#496919
1L!
#496920
1N!
1H!
1I!
#497280
0;
#499200
0!
#501600
1!
#501697
0=!
0<!
0;!
#501699
0B!
#501701
0L!
#501702
0I!
#501714
18!
#501715
1A!
#501716
1D!
#501719
1J!
#502080
1%
0(
0*
1,
10
11
12
14
06
1;
#504000
0!
#506400
1!
#506497
0:!
09!
#506498
0A!
#506499
0@!
#506515
1B!
#506520
1I!
1F!
#506526
1G!
#506880
1$
0&
0+
0-
0.
0/
15
08
0:
#508800
0!
#511200
1!
#511299
0B!
#511302
0I!
0K!
#511303
0H!
#511314
16!
1:!
17!
#511315
1>!
1A!
#511316
1?!
#511318
1M!
#511680
0;
#513600
0!
#516000
1!
#516101
0N!
#518400
0!
#520800
1!
#520897
08!
0:!
#520899
0?!
#520901
0J!
#520914
1=!
#520915
1B!
#520916
1@!
#520920
1N!
#523200
0!
#525600
1!
#525699
0D!
0B!
0@!
#525714
1:!
#525715
1E!
#525716
1?!
#525719
1L!
1K!
#525720
1H!
#526080
0#
0$
0%
0'
1-
00
02
05
18
1:
1;
#528000
0!
#530400
1!
#530501
0N!
#530880
1#
1$
1%
1'
0-
10
12
13
15
16
17
#532800
0!
#535200
1!
#535680
0;
#537600
0!
#540000
1!
#540480
0$
1&
0,
1.
04
08
09
0:
1;
#542400
0!
#544800
1!
#544898
0A!
#544899
0?!
0>!
#544903
0F!
0H!
#544906
0G!
#544914
19!
18!
1<!
#544915
1B!
#544919
1J!
#544920
1N!
1I!
#545280
0;
#547200
0!
#549600
1!
#549697
06!
0=!
09!
0<!
#549698
07!
0E!
#549699
0B!
#549701
0M!
0L!
#549702
0K!
#549714
1;!
#549715
1A!
#549716
1D!
1@!
#549720
1H!
#552000
0!
#554400
1!
#554501
0N!
#554880
0%
1(
1*
0.
00
01
02
05
18
1:
1;
#556800
0!
#559200
1!
#559297
0:!
#559298
0A!
#559299
0D!
#559303
0H!
#559314
1<!
19!
#559315
1B!
#559318
1M!
#559319
1K!
1L!
#559320
1N!
#559680
0;
#561600
0!
#564000
1!
#564101
0N!
#564480
1%
0(
0*
1.
10
11
12
15
08
0:
1;
#566400
0!
#568800
1!
#569280
0#
0%
0&
0'
1,
0.
14
06
#571200
0!
#573600
1!
#573697
09!
0<!
08!
#573698
0C!
#573701
0J!
#573702
0I!
#573714
1=!
1:!
#573715
1E!
1>!
1A!
#573716
1D!
1?!
#573720
1N!
1H!
1F!
#573726
1G!
#574080
1$
1(
1)
1*
1-
00
02
03
04
05
07
#576000
0!
#578400
1!
#578501
0N!
#578880
0;
#580800
0!
#583200
1!
#583297
0:!
#583298
0A!
#583299
0D!
0@!
#583301
0L!
#583302
0K!
#583303
0H!
#583314
19!
16!
17!
#583320
1N!
#583680
1%
0(
0*
0-
10
12
13
14
15
17
1;
#585600
0!
#588000
1!
#588097
0=!
#588098
07!
#588099
0B!
#588114
1<!
1:!
18!
#588119
1J!
#588480
0%
1(
1*
0,
00
01
02
04
16
#590400
0!
#592800
1!
#592897
0:!
08!
#592898
0E!
#592901
0M!
#592914
17!
#592915
1B!
#592916
1@!
#592919
1K!
#592920
1I!
1H!
#593280
0$
1&
1+
1-
1.
1/
05
18
1:
#595200
0!
#597600
1!
#597701
0N!
#598080
0;
#600000
0!
#602400
1!
#602497
06!
09!
#602498
07!
#602499
0>!
0B!
0?!
#602502
0I!
#602503
0F!
#602506
0G!
#602514
1:!
#602520
1N!
#604800
0!
#607200
1!
#607297
0:!
#607301
0J!
#607314
18!
19!
#607315
1B!
1A!
#607319
1L!
#607320
1I!
#607680
0&
0(
0)
0*
0-
10
12
15
08
0:
1;
#609600
0!
#612000
1!
#612097
0<!
09!
#612098
0A!
#612099
0B!
#612102
0I!
#612103
0H!
#612114
1:!
#612119
1J!
#612480
1&
1(
1)
1*
1-
00
02
14
18
19
1:
#614400
0!
#616800
1!
#616901
0N!
#617280
0;
#619200
0!
#621600
1!
#624000
0!
#626400
1!
#626501
0J!
#626514
16!
19!
17!
#626515
1B!
1>!
#626516
1?!
#626520
1N!
1I!
1F!
#626526
1G!
#628800
0!
#631200
1!
#631297
08!
09!
0;!
#631299
0B!
0@!
#631306
0G!
#631314
1=!
#631315
1E!
#631319
1J!
#631320
1H!
#633600
0!
#636000
1!
#636101
0N!
#638400
0!
#640800
1!
#643200
0!
#645600
1!
#648000
0!
#650400
1!
#652800
0!
#655200
1!
#657600
0!
#660000
1!
#662400
0!
#664800
1!
#667200
0!
#669600
1!
#670080
1O!
0!
